Estimate activity centers from acoustic telemetry data • TelemetrySpace
…
To access the provided data, run:

library(TelemetrySpace)
library(dplyr)
library(tidyr)
library(ggplot2)
library(hexbin)
library(ggpubr)

rlocs # Receiver locations

## # A tibble: 30 × 3
##    Station   east  north
##    <chr>    <dbl>  <dbl>
##  1 SB1     -1.33  1.61  
##  2 SB2     -0.579 1.91  
##  3 SB3      0.219 2.00  
##  4 SB4      1.00  1.81  
##  5 SB5     -1.69  0.896 
##  6 SB6     -0.879 0.950 
##  7 SB7     -0.231 1.20  
##  8 SB8      0.464 1.21  
##  9 SB9      1.28  1.04  
## 10 SB10    -1.77  0.0952
## # ℹ 20 more rows
…
